\relax 
\@writefile{toc}{\contentsline {section}{\numberline {I}INTRODUCTION}{1}}
\@writefile{toc}{\contentsline {section}{\numberline {II}Background}{2}}
\@writefile{toc}{\contentsline {subsection}{\numberline {\unhbox \voidb@x \hbox {II-A}}\textbf  {Eucalyptus}}{2}}
\@writefile{lof}{\contentsline {figure}{\numberline {1}{\ignorespaces Eucalyptus Component Diagram\relax }}{2}}
\@writefile{toc}{\contentsline {subsection}{\numberline {\unhbox \voidb@x \hbox {II-B}}\textbf  {OpenStack}}{2}}
\@writefile{lof}{\contentsline {figure}{\numberline {2}{\ignorespaces Openstack Component Diagram\relax }}{2}}
\@writefile{toc}{\contentsline {subsection}{\numberline {\unhbox \voidb@x \hbox {II-C}}\textbf  {Supporting Libraries}}{2}}
\@writefile{toc}{\contentsline {section}{\numberline {III}Deployment of Virtual Labs}{2}}
\@writefile{toc}{\contentsline {subsubsection}{\numberline {\unhbox \voidb@x \hbox {III-}1}\textbf  {Identifying Lab Specifications}}{3}}
\@writefile{toc}{\contentsline {subsubsection}{\numberline {\unhbox \voidb@x \hbox {III-}2}\textbf  {Creating Virtual Machine with the help of identified Specifications}}{3}}
\@writefile{lof}{\contentsline {figure}{\numberline {3}{\ignorespaces Architecture of Our API. The figure shows the functional layers in the system, starting with the Main class in the center, other API classes that deals with virtual machine management in the next layer and supporting libraries (Boto and Paramiko) as the outer layer. The figure also highlights the fact that API can concurrently interact with multiple cloud infrastructures. Virtual Machine Instances are represented via I1, I2, I3 etc.\relax }}{3}}
\@writefile{toc}{\contentsline {subsubsection}{\numberline {\unhbox \voidb@x \hbox {III-}3}\textbf  {Automatic Installation of lab dependencies}}{4}}
\@writefile{toc}{\contentsline {subsubsection}{\numberline {\unhbox \voidb@x \hbox {III-}4}\textbf  {Automatic deployment of lab}}{4}}
\@writefile{lof}{\contentsline {figure}{\numberline {4}{\ignorespaces API Workflow, Virtual Machine Instance\relax }}{4}}
\@writefile{toc}{\contentsline {section}{\numberline {IV}API Workflow and Implementation}{5}}
\@writefile{toc}{\contentsline {subsection}{\numberline {\unhbox \voidb@x \hbox {IV-A}}Domain Requirements}{5}}
\@writefile{toc}{\contentsline {subsection}{\numberline {\unhbox \voidb@x \hbox {IV-B}}Technical Requirements}{5}}
\@writefile{toc}{\contentsline {subsection}{\numberline {\unhbox \voidb@x \hbox {IV-C}}Design Details}{5}}
\@writefile{toc}{\contentsline {subsubsection}{\numberline {\unhbox \voidb@x \hbox {IV-C}1}\textbf  {Virtual Machine Image}}{5}}
\@writefile{toc}{\contentsline {subsubsection}{\numberline {\unhbox \voidb@x \hbox {IV-C}2}\textbf  {Vitrual Machine Instance}}{5}}
\@writefile{toc}{\contentsline {subsubsection}{\numberline {\unhbox \voidb@x \hbox {IV-C}3}\textbf  {Virtual Lab Deployment}}{5}}
\@writefile{toc}{\contentsline {subsubsection}{\numberline {\unhbox \voidb@x \hbox {IV-C}4}\textbf  {Logging}}{5}}
\@writefile{toc}{\contentsline {section}{\numberline {V}Testing Environment}{5}}
\bibcite{IEEEhowto:kopka}{1}
\bibcite{IEEEhowto:kopka}{2}
\bibcite{IEEEhowto:kopka}{3}
\bibcite{IEEEhowto:kopka}{4}
\bibcite{IEEEhowto:kopka}{5}
\bibcite{IEEEhowto:kopka}{6}
\bibcite{IEEEhowto:kopka}{7}
\bibcite{IEEEhowto:kopka}{8}
\bibcite{IEEEhowto:kopka}{9}
\bibcite{IEEEhowto:kopka}{10}
\bibcite{IEEEhowto:kopka}{11}
\@writefile{toc}{\contentsline {section}{\numberline {VI}Conclusion and new research directions}{6}}
\@writefile{toc}{\contentsline {section}{References}{6}}
